-- Merging decision tree log ---
manifest
ADDED from E:\Rajiv\Practice_Project\twj-mvvm\app\src\main\AndroidManifest.xml:2:1-62:12
INJECTED from E:\Rajiv\Practice_Project\twj-mvvm\app\src\main\AndroidManifest.xml:2:1-62:12
INJECTED from E:\Rajiv\Practice_Project\twj-mvvm\app\src\main\AndroidManifest.xml:2:1-62:12
INJECTED from E:\Rajiv\Practice_Project\twj-mvvm\app\src\main\AndroidManifest.xml:2:1-62:12
MERGED from [io.realm:realm-android-library:5.4.1] C:\Users\RajivLL\.gradle\caches\transforms-1\files-1.1\realm-android-library-5.4.1.aar\7a1f97e4eb27aa7702659fba0121fb0b\AndroidManifest.xml:2:1-10:12
MERGED from [com.dmitrymalkovich.android:progress-fab:1.6] C:\Users\RajivLL\.gradle\caches\transforms-1\files-1.1\progress-fab-1.6.aar\6e7921d69817ea486aabf36ba3ee93ad\AndroidManifest.xml:2:1-15:12
MERGED from [com.android.support:design:26.1.0] C:\Users\RajivLL\.gradle\caches\transforms-1\files-1.1\design-26.1.0.aar\6d59cbffaa67243ea0e37209db919aa6\AndroidManifest.xml:17:1-31:12
MERGED from [com.android.support:appcompat-v7:26.1.0] C:\Users\RajivLL\.gradle\caches\transforms-1\files-1.1\appcompat-v7-26.1.0.aar\8ccd2fa09afda521c69810cc31ac2285\AndroidManifest.xml:17:1-31:12
MERGED from [com.android.support.constraint:constraint-layout:1.1.3] C:\Users\RajivLL\.gradle\caches\transforms-1\files-1.1\constraint-layout-1.1.3.aar\e944cef2b7abafc775b4b368369966d2\AndroidManifest.xml:2:1-11:12
MERGED from [com.android.support:transition:26.1.0] C:\Users\RajivLL\.gradle\caches\transforms-1\files-1.1\transition-26.1.0.aar\732a50e3390636758b25f60d11eacec2\AndroidManifest.xml:17:1-28:12
MERGED from [com.android.support:support-v4:26.1.0] C:\Users\RajivLL\.gradle\caches\transforms-1\files-1.1\support-v4-26.1.0.aar\1ea0bffb26fd52cd4a9c35957c89791a\AndroidManifest.xml:17:1-31:12
MERGED from [io.github.inflationx:calligraphy3:3.0.0] C:\Users\RajivLL\.gradle\caches\transforms-1\files-1.1\calligraphy3-3.0.0.aar\ff38c7b6349126af70fbf59067307b27\AndroidManifest.xml:2:1-13:12
MERGED from [io.github.inflationx:viewpump:1.0.0] C:\Users\RajivLL\.gradle\caches\transforms-1\files-1.1\viewpump-1.0.0.aar\e8e3ceea6000246cbbd73ca042d110b0\AndroidManifest.xml:2:1-13:12
MERGED from [android.arch.lifecycle:extensions:1.1.1] C:\Users\RajivLL\.gradle\caches\transforms-1\files-1.1\extensions-1.1.1.aar\b901e72800f05df9cd71d1d0c640b875\AndroidManifest.xml:17:1-30:12
MERGED from [com.jakewharton.timber:timber:4.7.1] C:\Users\RajivLL\.gradle\caches\transforms-1\files-1.1\timber-4.7.1.aar\85e833e1296337b5fd6e40148797b52f\AndroidManifest.xml:2:1-9:12
MERGED from [com.android.support:recyclerview-v7:26.1.0] C:\Users\RajivLL\.gradle\caches\transforms-1\files-1.1\recyclerview-v7-26.1.0.aar\ae082dfd2830441d154b3dbe2ae9f20e\AndroidManifest.xml:17:1-28:12
MERGED from [com.getkeepsafe.relinker:relinker:1.2.2] C:\Users\RajivLL\.gradle\caches\transforms-1\files-1.1\relinker-1.2.2.aar\ff8b985bc766b18f6d0c97e32e6690c2\AndroidManifest.xml:2:1-9:12
MERGED from [com.android.support:animated-vector-drawable:26.1.0] C:\Users\RajivLL\.gradle\caches\transforms-1\files-1.1\animated-vector-drawable-26.1.0.aar\8879104bb16f9c43d27653ed8f34d295\AndroidManifest.xml:17:1-28:12
MERGED from [com.android.support:support-vector-drawable:26.1.0] C:\Users\RajivLL\.gradle\caches\transforms-1\files-1.1\support-vector-drawable-26.1.0.aar\455346f0da2e339455223bcc753fcc55\AndroidManifest.xml:17:1-28:12
MERGED from [com.android.support:support-media-compat:26.1.0] C:\Users\RajivLL\.gradle\caches\transforms-1\files-1.1\support-media-compat-26.1.0.aar\85d665ed2925be0eac87226dde53abb4\AndroidManifest.xml:17:1-31:12
MERGED from [com.android.support:support-fragment:26.1.0] C:\Users\RajivLL\.gradle\caches\transforms-1\files-1.1\support-fragment-26.1.0.aar\cf188380846b5328694db99540fe2f4b\AndroidManifest.xml:17:1-31:12
MERGED from [com.android.support:support-core-utils:26.1.0] C:\Users\RajivLL\.gradle\caches\transforms-1\files-1.1\support-core-utils-26.1.0.aar\365e6e8f7a8b103ff4ef73964b195c76\AndroidManifest.xml:17:1-31:12
MERGED from [com.android.support:support-core-ui:26.1.0] C:\Users\RajivLL\.gradle\caches\transforms-1\files-1.1\support-core-ui-26.1.0.aar\6d72f79c4f58355a50b54e9bdbc88840\AndroidManifest.xml:17:1-31:12
MERGED from [com.android.support:support-compat:26.1.0] C:\Users\RajivLL\.gradle\caches\transforms-1\files-1.1\support-compat-26.1.0.aar\a62190037b62d36e5b024436d06cf83b\AndroidManifest.xml:17:1-31:12
MERGED from [android.arch.lifecycle:livedata:1.1.1] C:\Users\RajivLL\.gradle\caches\transforms-1\files-1.1\livedata-1.1.1.aar\de665b91180621b95f47dbae0a7fa5c5\AndroidManifest.xml:17:1-22:12
MERGED from [android.arch.lifecycle:livedata-core:1.1.1] C:\Users\RajivLL\.gradle\caches\transforms-1\files-1.1\livedata-core-1.1.1.aar\627e6a757d4df81b0117a17ecd86ec8f\AndroidManifest.xml:17:1-22:12
MERGED from [android.arch.core:runtime:1.1.1] C:\Users\RajivLL\.gradle\caches\transforms-1\files-1.1\runtime-1.1.1.aar\279b2d9b5928af7e32499ffdd081f9df\AndroidManifest.xml:17:1-22:12
MERGED from [android.arch.lifecycle:runtime:1.1.1] C:\Users\RajivLL\.gradle\caches\transforms-1\files-1.1\runtime-1.1.1.aar\c40d7f613c296a788b140cabdfc1cb5d\AndroidManifest.xml:17:1-22:12
MERGED from [android.arch.lifecycle:viewmodel:1.1.1] C:\Users\RajivLL\.gradle\caches\transforms-1\files-1.1\viewmodel-1.1.1.aar\de57060e83937184c07cc63f269b8ed9\AndroidManifest.xml:17:1-22:12
INJECTED from E:\Rajiv\Practice_Project\twj-mvvm\app\src\main\AndroidManifest.xml:2:1-62:12
INJECTED from E:\Rajiv\Practice_Project\twj-mvvm\app\src\main\AndroidManifest.xml:2:1-62:12
INJECTED from E:\Rajiv\Practice_Project\twj-mvvm\app\src\main\AndroidManifest.xml:2:1-62:12
	package
		ADDED from E:\Rajiv\Practice_Project\twj-mvvm\app\src\main\AndroidManifest.xml:3:5-35
		INJECTED from E:\Rajiv\Practice_Project\twj-mvvm\app\src\main\AndroidManifest.xml
		INJECTED from E:\Rajiv\Practice_Project\twj-mvvm\app\src\main\AndroidManifest.xml
	android:versionName
		INJECTED from E:\Rajiv\Practice_Project\twj-mvvm\app\src\main\AndroidManifest.xml
		ADDED from E:\Rajiv\Practice_Project\twj-mvvm\app\src\main\AndroidManifest.xml:2:1-62:12
		INJECTED from E:\Rajiv\Practice_Project\twj-mvvm\app\src\main\AndroidManifest.xml
	android:versionCode
		INJECTED from E:\Rajiv\Practice_Project\twj-mvvm\app\src\main\AndroidManifest.xml
		ADDED from E:\Rajiv\Practice_Project\twj-mvvm\app\src\main\AndroidManifest.xml:2:1-62:12
		INJECTED from E:\Rajiv\Practice_Project\twj-mvvm\app\src\main\AndroidManifest.xml
	xmlns:android
		ADDED from E:\Rajiv\Practice_Project\twj-mvvm\app\src\main\AndroidManifest.xml:2:11-69
uses-permission#android.permission.ACCESS_NETWORK_STATE
ADDED from E:\Rajiv\Practice_Project\twj-mvvm\app\src\main\AndroidManifest.xml:5:5-79
	android:name
		ADDED from E:\Rajiv\Practice_Project\twj-mvvm\app\src\main\AndroidManifest.xml:5:22-76
uses-permission#android.permission.INTERNET
ADDED from E:\Rajiv\Practice_Project\twj-mvvm\app\src\main\AndroidManifest.xml:6:5-67
	android:name
		ADDED from E:\Rajiv\Practice_Project\twj-mvvm\app\src\main\AndroidManifest.xml:6:22-64
application
ADDED from E:\Rajiv\Practice_Project\twj-mvvm\app\src\main\AndroidManifest.xml:8:5-60:19
MERGED from [com.dmitrymalkovich.android:progress-fab:1.6] C:\Users\RajivLL\.gradle\caches\transforms-1\files-1.1\progress-fab-1.6.aar\6e7921d69817ea486aabf36ba3ee93ad\AndroidManifest.xml:11:5-13:44
MERGED from [com.dmitrymalkovich.android:progress-fab:1.6] C:\Users\RajivLL\.gradle\caches\transforms-1\files-1.1\progress-fab-1.6.aar\6e7921d69817ea486aabf36ba3ee93ad\AndroidManifest.xml:11:5-13:44
MERGED from [com.android.support:design:26.1.0] C:\Users\RajivLL\.gradle\caches\transforms-1\files-1.1\design-26.1.0.aar\6d59cbffaa67243ea0e37209db919aa6\AndroidManifest.xml:25:5-29:19
MERGED from [com.android.support:design:26.1.0] C:\Users\RajivLL\.gradle\caches\transforms-1\files-1.1\design-26.1.0.aar\6d59cbffaa67243ea0e37209db919aa6\AndroidManifest.xml:25:5-29:19
MERGED from [com.android.support:appcompat-v7:26.1.0] C:\Users\RajivLL\.gradle\caches\transforms-1\files-1.1\appcompat-v7-26.1.0.aar\8ccd2fa09afda521c69810cc31ac2285\AndroidManifest.xml:25:5-29:19
MERGED from [com.android.support:appcompat-v7:26.1.0] C:\Users\RajivLL\.gradle\caches\transforms-1\files-1.1\appcompat-v7-26.1.0.aar\8ccd2fa09afda521c69810cc31ac2285\AndroidManifest.xml:25:5-29:19
MERGED from [com.android.support.constraint:constraint-layout:1.1.3] C:\Users\RajivLL\.gradle\caches\transforms-1\files-1.1\constraint-layout-1.1.3.aar\e944cef2b7abafc775b4b368369966d2\AndroidManifest.xml:9:5-20
MERGED from [com.android.support.constraint:constraint-layout:1.1.3] C:\Users\RajivLL\.gradle\caches\transforms-1\files-1.1\constraint-layout-1.1.3.aar\e944cef2b7abafc775b4b368369966d2\AndroidManifest.xml:9:5-20
MERGED from [com.android.support:transition:26.1.0] C:\Users\RajivLL\.gradle\caches\transforms-1\files-1.1\transition-26.1.0.aar\732a50e3390636758b25f60d11eacec2\AndroidManifest.xml:22:5-26:19
MERGED from [com.android.support:transition:26.1.0] C:\Users\RajivLL\.gradle\caches\transforms-1\files-1.1\transition-26.1.0.aar\732a50e3390636758b25f60d11eacec2\AndroidManifest.xml:22:5-26:19
MERGED from [com.android.support:support-v4:26.1.0] C:\Users\RajivLL\.gradle\caches\transforms-1\files-1.1\support-v4-26.1.0.aar\1ea0bffb26fd52cd4a9c35957c89791a\AndroidManifest.xml:25:5-29:19
MERGED from [com.android.support:support-v4:26.1.0] C:\Users\RajivLL\.gradle\caches\transforms-1\files-1.1\support-v4-26.1.0.aar\1ea0bffb26fd52cd4a9c35957c89791a\AndroidManifest.xml:25:5-29:19
MERGED from [io.github.inflationx:calligraphy3:3.0.0] C:\Users\RajivLL\.gradle\caches\transforms-1\files-1.1\calligraphy3-3.0.0.aar\ff38c7b6349126af70fbf59067307b27\AndroidManifest.xml:11:5-20
MERGED from [io.github.inflationx:calligraphy3:3.0.0] C:\Users\RajivLL\.gradle\caches\transforms-1\files-1.1\calligraphy3-3.0.0.aar\ff38c7b6349126af70fbf59067307b27\AndroidManifest.xml:11:5-20
MERGED from [io.github.inflationx:viewpump:1.0.0] C:\Users\RajivLL\.gradle\caches\transforms-1\files-1.1\viewpump-1.0.0.aar\e8e3ceea6000246cbbd73ca042d110b0\AndroidManifest.xml:11:5-20
MERGED from [io.github.inflationx:viewpump:1.0.0] C:\Users\RajivLL\.gradle\caches\transforms-1\files-1.1\viewpump-1.0.0.aar\e8e3ceea6000246cbbd73ca042d110b0\AndroidManifest.xml:11:5-20
MERGED from [android.arch.lifecycle:extensions:1.1.1] C:\Users\RajivLL\.gradle\caches\transforms-1\files-1.1\extensions-1.1.1.aar\b901e72800f05df9cd71d1d0c640b875\AndroidManifest.xml:22:5-28:19
MERGED from [android.arch.lifecycle:extensions:1.1.1] C:\Users\RajivLL\.gradle\caches\transforms-1\files-1.1\extensions-1.1.1.aar\b901e72800f05df9cd71d1d0c640b875\AndroidManifest.xml:22:5-28:19
MERGED from [com.jakewharton.timber:timber:4.7.1] C:\Users\RajivLL\.gradle\caches\transforms-1\files-1.1\timber-4.7.1.aar\85e833e1296337b5fd6e40148797b52f\AndroidManifest.xml:7:5-20
MERGED from [com.jakewharton.timber:timber:4.7.1] C:\Users\RajivLL\.gradle\caches\transforms-1\files-1.1\timber-4.7.1.aar\85e833e1296337b5fd6e40148797b52f\AndroidManifest.xml:7:5-20
MERGED from [com.android.support:recyclerview-v7:26.1.0] C:\Users\RajivLL\.gradle\caches\transforms-1\files-1.1\recyclerview-v7-26.1.0.aar\ae082dfd2830441d154b3dbe2ae9f20e\AndroidManifest.xml:22:5-26:19
MERGED from [com.android.support:recyclerview-v7:26.1.0] C:\Users\RajivLL\.gradle\caches\transforms-1\files-1.1\recyclerview-v7-26.1.0.aar\ae082dfd2830441d154b3dbe2ae9f20e\AndroidManifest.xml:22:5-26:19
MERGED from [com.android.support:animated-vector-drawable:26.1.0] C:\Users\RajivLL\.gradle\caches\transforms-1\files-1.1\animated-vector-drawable-26.1.0.aar\8879104bb16f9c43d27653ed8f34d295\AndroidManifest.xml:22:5-26:19
MERGED from [com.android.support:animated-vector-drawable:26.1.0] C:\Users\RajivLL\.gradle\caches\transforms-1\files-1.1\animated-vector-drawable-26.1.0.aar\8879104bb16f9c43d27653ed8f34d295\AndroidManifest.xml:22:5-26:19
MERGED from [com.android.support:support-vector-drawable:26.1.0] C:\Users\RajivLL\.gradle\caches\transforms-1\files-1.1\support-vector-drawable-26.1.0.aar\455346f0da2e339455223bcc753fcc55\AndroidManifest.xml:22:5-26:19
MERGED from [com.android.support:support-vector-drawable:26.1.0] C:\Users\RajivLL\.gradle\caches\transforms-1\files-1.1\support-vector-drawable-26.1.0.aar\455346f0da2e339455223bcc753fcc55\AndroidManifest.xml:22:5-26:19
MERGED from [com.android.support:support-media-compat:26.1.0] C:\Users\RajivLL\.gradle\caches\transforms-1\files-1.1\support-media-compat-26.1.0.aar\85d665ed2925be0eac87226dde53abb4\AndroidManifest.xml:25:5-29:19
MERGED from [com.android.support:support-media-compat:26.1.0] C:\Users\RajivLL\.gradle\caches\transforms-1\files-1.1\support-media-compat-26.1.0.aar\85d665ed2925be0eac87226dde53abb4\AndroidManifest.xml:25:5-29:19
MERGED from [com.android.support:support-fragment:26.1.0] C:\Users\RajivLL\.gradle\caches\transforms-1\files-1.1\support-fragment-26.1.0.aar\cf188380846b5328694db99540fe2f4b\AndroidManifest.xml:25:5-29:19
MERGED from [com.android.support:support-fragment:26.1.0] C:\Users\RajivLL\.gradle\caches\transforms-1\files-1.1\support-fragment-26.1.0.aar\cf188380846b5328694db99540fe2f4b\AndroidManifest.xml:25:5-29:19
MERGED from [com.android.support:support-core-utils:26.1.0] C:\Users\RajivLL\.gradle\caches\transforms-1\files-1.1\support-core-utils-26.1.0.aar\365e6e8f7a8b103ff4ef73964b195c76\AndroidManifest.xml:25:5-29:19
MERGED from [com.android.support:support-core-utils:26.1.0] C:\Users\RajivLL\.gradle\caches\transforms-1\files-1.1\support-core-utils-26.1.0.aar\365e6e8f7a8b103ff4ef73964b195c76\AndroidManifest.xml:25:5-29:19
MERGED from [com.android.support:support-core-ui:26.1.0] C:\Users\RajivLL\.gradle\caches\transforms-1\files-1.1\support-core-ui-26.1.0.aar\6d72f79c4f58355a50b54e9bdbc88840\AndroidManifest.xml:25:5-29:19
MERGED from [com.android.support:support-core-ui:26.1.0] C:\Users\RajivLL\.gradle\caches\transforms-1\files-1.1\support-core-ui-26.1.0.aar\6d72f79c4f58355a50b54e9bdbc88840\AndroidManifest.xml:25:5-29:19
MERGED from [com.android.support:support-compat:26.1.0] C:\Users\RajivLL\.gradle\caches\transforms-1\files-1.1\support-compat-26.1.0.aar\a62190037b62d36e5b024436d06cf83b\AndroidManifest.xml:25:5-29:19
MERGED from [com.android.support:support-compat:26.1.0] C:\Users\RajivLL\.gradle\caches\transforms-1\files-1.1\support-compat-26.1.0.aar\a62190037b62d36e5b024436d06cf83b\AndroidManifest.xml:25:5-29:19
	android:supportsRtl
		ADDED from E:\Rajiv\Practice_Project\twj-mvvm\app\src\main\AndroidManifest.xml:14:9-35
	android:label
		ADDED from E:\Rajiv\Practice_Project\twj-mvvm\app\src\main\AndroidManifest.xml:12:9-41
	android:roundIcon
		ADDED from E:\Rajiv\Practice_Project\twj-mvvm\app\src\main\AndroidManifest.xml:13:9-54
	android:icon
		ADDED from E:\Rajiv\Practice_Project\twj-mvvm\app\src\main\AndroidManifest.xml:11:9-43
	android:allowBackup
		ADDED from E:\Rajiv\Practice_Project\twj-mvvm\app\src\main\AndroidManifest.xml:10:9-35
	android:theme
		ADDED from E:\Rajiv\Practice_Project\twj-mvvm\app\src\main\AndroidManifest.xml:15:9-40
	android:name
		ADDED from E:\Rajiv\Practice_Project\twj-mvvm\app\src\main\AndroidManifest.xml:9:9-57
activity#twj.lastlocal.in.twj.activities.SplashActivity
ADDED from E:\Rajiv\Practice_Project\twj-mvvm\app\src\main\AndroidManifest.xml:16:9-24:20
	android:screenOrientation
		ADDED from E:\Rajiv\Practice_Project\twj-mvvm\app\src\main\AndroidManifest.xml:19:13-49
	android:configChanges
		ADDED from E:\Rajiv\Practice_Project\twj-mvvm\app\src\main\AndroidManifest.xml:18:13-48
	android:name
		ADDED from E:\Rajiv\Practice_Project\twj-mvvm\app\src\main\AndroidManifest.xml:17:13-54
intent-filter#action:name:android.intent.action.MAIN+category:name:android.intent.category.LAUNCHER
ADDED from E:\Rajiv\Practice_Project\twj-mvvm\app\src\main\AndroidManifest.xml:20:13-23:29
action#android.intent.action.MAIN
ADDED from E:\Rajiv\Practice_Project\twj-mvvm\app\src\main\AndroidManifest.xml:21:17-69
	android:name
		ADDED from E:\Rajiv\Practice_Project\twj-mvvm\app\src\main\AndroidManifest.xml:21:25-66
category#android.intent.category.LAUNCHER
ADDED from E:\Rajiv\Practice_Project\twj-mvvm\app\src\main\AndroidManifest.xml:22:17-77
	android:name
		ADDED from E:\Rajiv\Practice_Project\twj-mvvm\app\src\main\AndroidManifest.xml:22:27-74
activity#twj.lastlocal.in.twj.activities.LoginActivity
ADDED from E:\Rajiv\Practice_Project\twj-mvvm\app\src\main\AndroidManifest.xml:25:9-29:58
	android:screenOrientation
		ADDED from E:\Rajiv\Practice_Project\twj-mvvm\app\src\main\AndroidManifest.xml:28:13-49
	android:windowSoftInputMode
		ADDED from E:\Rajiv\Practice_Project\twj-mvvm\app\src\main\AndroidManifest.xml:29:13-55
	android:configChanges
		ADDED from E:\Rajiv\Practice_Project\twj-mvvm\app\src\main\AndroidManifest.xml:27:13-48
	android:name
		ADDED from E:\Rajiv\Practice_Project\twj-mvvm\app\src\main\AndroidManifest.xml:26:13-53
activity#twj.lastlocal.in.twj.activities.CheckRegisteredActivity
ADDED from E:\Rajiv\Practice_Project\twj-mvvm\app\src\main\AndroidManifest.xml:30:9-33:52
	android:screenOrientation
		ADDED from E:\Rajiv\Practice_Project\twj-mvvm\app\src\main\AndroidManifest.xml:33:13-49
	android:configChanges
		ADDED from E:\Rajiv\Practice_Project\twj-mvvm\app\src\main\AndroidManifest.xml:32:13-48
	android:name
		ADDED from E:\Rajiv\Practice_Project\twj-mvvm\app\src\main\AndroidManifest.xml:31:13-63
activity#twj.lastlocal.in.twj.activities.AttendanceActivity
ADDED from E:\Rajiv\Practice_Project\twj-mvvm\app\src\main\AndroidManifest.xml:34:9-42:20
	android:screenOrientation
		ADDED from E:\Rajiv\Practice_Project\twj-mvvm\app\src\main\AndroidManifest.xml:38:13-49
	android:parentActivityName
		ADDED from E:\Rajiv\Practice_Project\twj-mvvm\app\src\main\AndroidManifest.xml:37:13-77
	android:configChanges
		ADDED from E:\Rajiv\Practice_Project\twj-mvvm\app\src\main\AndroidManifest.xml:36:13-48
	android:name
		ADDED from E:\Rajiv\Practice_Project\twj-mvvm\app\src\main\AndroidManifest.xml:35:13-58
meta-data#android.support.PARENT_ACTIVITY
ADDED from E:\Rajiv\Practice_Project\twj-mvvm\app\src\main\AndroidManifest.xml:39:13-41:71
	android:value
		ADDED from E:\Rajiv\Practice_Project\twj-mvvm\app\src\main\AndroidManifest.xml:41:17-68
	android:name
		ADDED from E:\Rajiv\Practice_Project\twj-mvvm\app\src\main\AndroidManifest.xml:40:17-63
activity#twj.lastlocal.in.twj.activities.EditActivity
ADDED from E:\Rajiv\Practice_Project\twj-mvvm\app\src\main\AndroidManifest.xml:43:9-53:20
	android:screenOrientation
		ADDED from E:\Rajiv\Practice_Project\twj-mvvm\app\src\main\AndroidManifest.xml:48:13-49
	android:parentActivityName
		ADDED from E:\Rajiv\Practice_Project\twj-mvvm\app\src\main\AndroidManifest.xml:47:13-77
	android:windowSoftInputMode
		ADDED from E:\Rajiv\Practice_Project\twj-mvvm\app\src\main\AndroidManifest.xml:49:13-55
	android:noHistory
		ADDED from E:\Rajiv\Practice_Project\twj-mvvm\app\src\main\AndroidManifest.xml:46:13-37
	android:configChanges
		ADDED from E:\Rajiv\Practice_Project\twj-mvvm\app\src\main\AndroidManifest.xml:45:13-48
	android:name
		ADDED from E:\Rajiv\Practice_Project\twj-mvvm\app\src\main\AndroidManifest.xml:44:13-52
activity#twj.lastlocal.in.twj.activities.MainActivity
ADDED from E:\Rajiv\Practice_Project\twj-mvvm\app\src\main\AndroidManifest.xml:54:9-59:20
	android:name
		ADDED from E:\Rajiv\Practice_Project\twj-mvvm\app\src\main\AndroidManifest.xml:54:19-58
uses-sdk
INJECTED from E:\Rajiv\Practice_Project\twj-mvvm\app\src\main\AndroidManifest.xml reason: use-sdk injection requested
INJECTED from E:\Rajiv\Practice_Project\twj-mvvm\app\src\main\AndroidManifest.xml
INJECTED from E:\Rajiv\Practice_Project\twj-mvvm\app\src\main\AndroidManifest.xml
MERGED from [io.realm:realm-android-library:5.4.1] C:\Users\RajivLL\.gradle\caches\transforms-1\files-1.1\realm-android-library-5.4.1.aar\7a1f97e4eb27aa7702659fba0121fb0b\AndroidManifest.xml:6:5-8:41
MERGED from [io.realm:realm-android-library:5.4.1] C:\Users\RajivLL\.gradle\caches\transforms-1\files-1.1\realm-android-library-5.4.1.aar\7a1f97e4eb27aa7702659fba0121fb0b\AndroidManifest.xml:6:5-8:41
MERGED from [com.dmitrymalkovich.android:progress-fab:1.6] C:\Users\RajivLL\.gradle\caches\transforms-1\files-1.1\progress-fab-1.6.aar\6e7921d69817ea486aabf36ba3ee93ad\AndroidManifest.xml:7:5-9:41
MERGED from [com.dmitrymalkovich.android:progress-fab:1.6] C:\Users\RajivLL\.gradle\caches\transforms-1\files-1.1\progress-fab-1.6.aar\6e7921d69817ea486aabf36ba3ee93ad\AndroidManifest.xml:7:5-9:41
MERGED from [com.android.support:design:26.1.0] C:\Users\RajivLL\.gradle\caches\transforms-1\files-1.1\design-26.1.0.aar\6d59cbffaa67243ea0e37209db919aa6\AndroidManifest.xml:21:5-23:62
MERGED from [com.android.support:design:26.1.0] C:\Users\RajivLL\.gradle\caches\transforms-1\files-1.1\design-26.1.0.aar\6d59cbffaa67243ea0e37209db919aa6\AndroidManifest.xml:21:5-23:62
MERGED from [com.android.support:appcompat-v7:26.1.0] C:\Users\RajivLL\.gradle\caches\transforms-1\files-1.1\appcompat-v7-26.1.0.aar\8ccd2fa09afda521c69810cc31ac2285\AndroidManifest.xml:21:5-23:78
MERGED from [com.android.support:appcompat-v7:26.1.0] C:\Users\RajivLL\.gradle\caches\transforms-1\files-1.1\appcompat-v7-26.1.0.aar\8ccd2fa09afda521c69810cc31ac2285\AndroidManifest.xml:21:5-23:78
MERGED from [com.android.support.constraint:constraint-layout:1.1.3] C:\Users\RajivLL\.gradle\caches\transforms-1\files-1.1\constraint-layout-1.1.3.aar\e944cef2b7abafc775b4b368369966d2\AndroidManifest.xml:5:5-7:41
MERGED from [com.android.support.constraint:constraint-layout:1.1.3] C:\Users\RajivLL\.gradle\caches\transforms-1\files-1.1\constraint-layout-1.1.3.aar\e944cef2b7abafc775b4b368369966d2\AndroidManifest.xml:5:5-7:41
MERGED from [com.android.support:transition:26.1.0] C:\Users\RajivLL\.gradle\caches\transforms-1\files-1.1\transition-26.1.0.aar\732a50e3390636758b25f60d11eacec2\AndroidManifest.xml:20:5-44
MERGED from [com.android.support:transition:26.1.0] C:\Users\RajivLL\.gradle\caches\transforms-1\files-1.1\transition-26.1.0.aar\732a50e3390636758b25f60d11eacec2\AndroidManifest.xml:20:5-44
MERGED from [com.android.support:support-v4:26.1.0] C:\Users\RajivLL\.gradle\caches\transforms-1\files-1.1\support-v4-26.1.0.aar\1ea0bffb26fd52cd4a9c35957c89791a\AndroidManifest.xml:21:5-23:54
MERGED from [com.android.support:support-v4:26.1.0] C:\Users\RajivLL\.gradle\caches\transforms-1\files-1.1\support-v4-26.1.0.aar\1ea0bffb26fd52cd4a9c35957c89791a\AndroidManifest.xml:21:5-23:54
MERGED from [io.github.inflationx:calligraphy3:3.0.0] C:\Users\RajivLL\.gradle\caches\transforms-1\files-1.1\calligraphy3-3.0.0.aar\ff38c7b6349126af70fbf59067307b27\AndroidManifest.xml:7:5-9:41
MERGED from [io.github.inflationx:calligraphy3:3.0.0] C:\Users\RajivLL\.gradle\caches\transforms-1\files-1.1\calligraphy3-3.0.0.aar\ff38c7b6349126af70fbf59067307b27\AndroidManifest.xml:7:5-9:41
MERGED from [io.github.inflationx:viewpump:1.0.0] C:\Users\RajivLL\.gradle\caches\transforms-1\files-1.1\viewpump-1.0.0.aar\e8e3ceea6000246cbbd73ca042d110b0\AndroidManifest.xml:7:5-9:41
MERGED from [io.github.inflationx:viewpump:1.0.0] C:\Users\RajivLL\.gradle\caches\transforms-1\files-1.1\viewpump-1.0.0.aar\e8e3ceea6000246cbbd73ca042d110b0\AndroidManifest.xml:7:5-9:41
MERGED from [android.arch.lifecycle:extensions:1.1.1] C:\Users\RajivLL\.gradle\caches\transforms-1\files-1.1\extensions-1.1.1.aar\b901e72800f05df9cd71d1d0c640b875\AndroidManifest.xml:20:5-44
MERGED from [android.arch.lifecycle:extensions:1.1.1] C:\Users\RajivLL\.gradle\caches\transforms-1\files-1.1\extensions-1.1.1.aar\b901e72800f05df9cd71d1d0c640b875\AndroidManifest.xml:20:5-44
MERGED from [com.jakewharton.timber:timber:4.7.1] C:\Users\RajivLL\.gradle\caches\transforms-1\files-1.1\timber-4.7.1.aar\85e833e1296337b5fd6e40148797b52f\AndroidManifest.xml:5:5-43
MERGED from [com.jakewharton.timber:timber:4.7.1] C:\Users\RajivLL\.gradle\caches\transforms-1\files-1.1\timber-4.7.1.aar\85e833e1296337b5fd6e40148797b52f\AndroidManifest.xml:5:5-43
MERGED from [com.android.support:recyclerview-v7:26.1.0] C:\Users\RajivLL\.gradle\caches\transforms-1\files-1.1\recyclerview-v7-26.1.0.aar\ae082dfd2830441d154b3dbe2ae9f20e\AndroidManifest.xml:20:5-44
MERGED from [com.android.support:recyclerview-v7:26.1.0] C:\Users\RajivLL\.gradle\caches\transforms-1\files-1.1\recyclerview-v7-26.1.0.aar\ae082dfd2830441d154b3dbe2ae9f20e\AndroidManifest.xml:20:5-44
MERGED from [com.getkeepsafe.relinker:relinker:1.2.2] C:\Users\RajivLL\.gradle\caches\transforms-1\files-1.1\relinker-1.2.2.aar\ff8b985bc766b18f6d0c97e32e6690c2\AndroidManifest.xml:7:5-43
MERGED from [com.getkeepsafe.relinker:relinker:1.2.2] C:\Users\RajivLL\.gradle\caches\transforms-1\files-1.1\relinker-1.2.2.aar\ff8b985bc766b18f6d0c97e32e6690c2\AndroidManifest.xml:7:5-43
MERGED from [com.android.support:animated-vector-drawable:26.1.0] C:\Users\RajivLL\.gradle\caches\transforms-1\files-1.1\animated-vector-drawable-26.1.0.aar\8879104bb16f9c43d27653ed8f34d295\AndroidManifest.xml:20:5-44
MERGED from [com.android.support:animated-vector-drawable:26.1.0] C:\Users\RajivLL\.gradle\caches\transforms-1\files-1.1\animated-vector-drawable-26.1.0.aar\8879104bb16f9c43d27653ed8f34d295\AndroidManifest.xml:20:5-44
MERGED from [com.android.support:support-vector-drawable:26.1.0] C:\Users\RajivLL\.gradle\caches\transforms-1\files-1.1\support-vector-drawable-26.1.0.aar\455346f0da2e339455223bcc753fcc55\AndroidManifest.xml:20:5-44
MERGED from [com.android.support:support-vector-drawable:26.1.0] C:\Users\RajivLL\.gradle\caches\transforms-1\files-1.1\support-vector-drawable-26.1.0.aar\455346f0da2e339455223bcc753fcc55\AndroidManifest.xml:20:5-44
MERGED from [com.android.support:support-media-compat:26.1.0] C:\Users\RajivLL\.gradle\caches\transforms-1\files-1.1\support-media-compat-26.1.0.aar\85d665ed2925be0eac87226dde53abb4\AndroidManifest.xml:21:5-23:63
MERGED from [com.android.support:support-media-compat:26.1.0] C:\Users\RajivLL\.gradle\caches\transforms-1\files-1.1\support-media-compat-26.1.0.aar\85d665ed2925be0eac87226dde53abb4\AndroidManifest.xml:21:5-23:63
MERGED from [com.android.support:support-fragment:26.1.0] C:\Users\RajivLL\.gradle\caches\transforms-1\files-1.1\support-fragment-26.1.0.aar\cf188380846b5328694db99540fe2f4b\AndroidManifest.xml:21:5-23:60
MERGED from [com.android.support:support-fragment:26.1.0] C:\Users\RajivLL\.gradle\caches\transforms-1\files-1.1\support-fragment-26.1.0.aar\cf188380846b5328694db99540fe2f4b\AndroidManifest.xml:21:5-23:60
MERGED from [com.android.support:support-core-utils:26.1.0] C:\Users\RajivLL\.gradle\caches\transforms-1\files-1.1\support-core-utils-26.1.0.aar\365e6e8f7a8b103ff4ef73964b195c76\AndroidManifest.xml:21:5-23:61
MERGED from [com.android.support:support-core-utils:26.1.0] C:\Users\RajivLL\.gradle\caches\transforms-1\files-1.1\support-core-utils-26.1.0.aar\365e6e8f7a8b103ff4ef73964b195c76\AndroidManifest.xml:21:5-23:61
MERGED from [com.android.support:support-core-ui:26.1.0] C:\Users\RajivLL\.gradle\caches\transforms-1\files-1.1\support-core-ui-26.1.0.aar\6d72f79c4f58355a50b54e9bdbc88840\AndroidManifest.xml:21:5-23:58
MERGED from [com.android.support:support-core-ui:26.1.0] C:\Users\RajivLL\.gradle\caches\transforms-1\files-1.1\support-core-ui-26.1.0.aar\6d72f79c4f58355a50b54e9bdbc88840\AndroidManifest.xml:21:5-23:58
MERGED from [com.android.support:support-compat:26.1.0] C:\Users\RajivLL\.gradle\caches\transforms-1\files-1.1\support-compat-26.1.0.aar\a62190037b62d36e5b024436d06cf83b\AndroidManifest.xml:21:5-23:58
MERGED from [com.android.support:support-compat:26.1.0] C:\Users\RajivLL\.gradle\caches\transforms-1\files-1.1\support-compat-26.1.0.aar\a62190037b62d36e5b024436d06cf83b\AndroidManifest.xml:21:5-23:58
MERGED from [android.arch.lifecycle:livedata:1.1.1] C:\Users\RajivLL\.gradle\caches\transforms-1\files-1.1\livedata-1.1.1.aar\de665b91180621b95f47dbae0a7fa5c5\AndroidManifest.xml:20:5-44
MERGED from [android.arch.lifecycle:livedata:1.1.1] C:\Users\RajivLL\.gradle\caches\transforms-1\files-1.1\livedata-1.1.1.aar\de665b91180621b95f47dbae0a7fa5c5\AndroidManifest.xml:20:5-44
MERGED from [android.arch.lifecycle:livedata-core:1.1.1] C:\Users\RajivLL\.gradle\caches\transforms-1\files-1.1\livedata-core-1.1.1.aar\627e6a757d4df81b0117a17ecd86ec8f\AndroidManifest.xml:20:5-44
MERGED from [android.arch.lifecycle:livedata-core:1.1.1] C:\Users\RajivLL\.gradle\caches\transforms-1\files-1.1\livedata-core-1.1.1.aar\627e6a757d4df81b0117a17ecd86ec8f\AndroidManifest.xml:20:5-44
MERGED from [android.arch.core:runtime:1.1.1] C:\Users\RajivLL\.gradle\caches\transforms-1\files-1.1\runtime-1.1.1.aar\279b2d9b5928af7e32499ffdd081f9df\AndroidManifest.xml:20:5-44
MERGED from [android.arch.core:runtime:1.1.1] C:\Users\RajivLL\.gradle\caches\transforms-1\files-1.1\runtime-1.1.1.aar\279b2d9b5928af7e32499ffdd081f9df\AndroidManifest.xml:20:5-44
MERGED from [android.arch.lifecycle:runtime:1.1.1] C:\Users\RajivLL\.gradle\caches\transforms-1\files-1.1\runtime-1.1.1.aar\c40d7f613c296a788b140cabdfc1cb5d\AndroidManifest.xml:20:5-44
MERGED from [android.arch.lifecycle:runtime:1.1.1] C:\Users\RajivLL\.gradle\caches\transforms-1\files-1.1\runtime-1.1.1.aar\c40d7f613c296a788b140cabdfc1cb5d\AndroidManifest.xml:20:5-44
MERGED from [android.arch.lifecycle:viewmodel:1.1.1] C:\Users\RajivLL\.gradle\caches\transforms-1\files-1.1\viewmodel-1.1.1.aar\de57060e83937184c07cc63f269b8ed9\AndroidManifest.xml:20:5-44
MERGED from [android.arch.lifecycle:viewmodel:1.1.1] C:\Users\RajivLL\.gradle\caches\transforms-1\files-1.1\viewmodel-1.1.1.aar\de57060e83937184c07cc63f269b8ed9\AndroidManifest.xml:20:5-44
INJECTED from E:\Rajiv\Practice_Project\twj-mvvm\app\src\main\AndroidManifest.xml
INJECTED from E:\Rajiv\Practice_Project\twj-mvvm\app\src\main\AndroidManifest.xml
	tools:overrideLibrary
		ADDED from [com.android.support:design:26.1.0] C:\Users\RajivLL\.gradle\caches\transforms-1\files-1.1\design-26.1.0.aar\6d59cbffaa67243ea0e37209db919aa6\AndroidManifest.xml:23:9-59
	android:targetSdkVersion
		INJECTED from E:\Rajiv\Practice_Project\twj-mvvm\app\src\main\AndroidManifest.xml
		ADDED from E:\Rajiv\Practice_Project\twj-mvvm\app\src\main\AndroidManifest.xml
		INJECTED from E:\Rajiv\Practice_Project\twj-mvvm\app\src\main\AndroidManifest.xml
	android:minSdkVersion
		INJECTED from E:\Rajiv\Practice_Project\twj-mvvm\app\src\main\AndroidManifest.xml
		ADDED from E:\Rajiv\Practice_Project\twj-mvvm\app\src\main\AndroidManifest.xml
		INJECTED from E:\Rajiv\Practice_Project\twj-mvvm\app\src\main\AndroidManifest.xml
meta-data#android.support.VERSION
ADDED from [com.android.support:design:26.1.0] C:\Users\RajivLL\.gradle\caches\transforms-1\files-1.1\design-26.1.0.aar\6d59cbffaa67243ea0e37209db919aa6\AndroidManifest.xml:26:9-28:38
MERGED from [com.android.support:appcompat-v7:26.1.0] C:\Users\RajivLL\.gradle\caches\transforms-1\files-1.1\appcompat-v7-26.1.0.aar\8ccd2fa09afda521c69810cc31ac2285\AndroidManifest.xml:26:9-28:38
MERGED from [com.android.support:appcompat-v7:26.1.0] C:\Users\RajivLL\.gradle\caches\transforms-1\files-1.1\appcompat-v7-26.1.0.aar\8ccd2fa09afda521c69810cc31ac2285\AndroidManifest.xml:26:9-28:38
MERGED from [com.android.support:transition:26.1.0] C:\Users\RajivLL\.gradle\caches\transforms-1\files-1.1\transition-26.1.0.aar\732a50e3390636758b25f60d11eacec2\AndroidManifest.xml:23:9-25:38
MERGED from [com.android.support:transition:26.1.0] C:\Users\RajivLL\.gradle\caches\transforms-1\files-1.1\transition-26.1.0.aar\732a50e3390636758b25f60d11eacec2\AndroidManifest.xml:23:9-25:38
MERGED from [com.android.support:support-v4:26.1.0] C:\Users\RajivLL\.gradle\caches\transforms-1\files-1.1\support-v4-26.1.0.aar\1ea0bffb26fd52cd4a9c35957c89791a\AndroidManifest.xml:26:9-28:38
MERGED from [com.android.support:support-v4:26.1.0] C:\Users\RajivLL\.gradle\caches\transforms-1\files-1.1\support-v4-26.1.0.aar\1ea0bffb26fd52cd4a9c35957c89791a\AndroidManifest.xml:26:9-28:38
MERGED from [com.android.support:recyclerview-v7:26.1.0] C:\Users\RajivLL\.gradle\caches\transforms-1\files-1.1\recyclerview-v7-26.1.0.aar\ae082dfd2830441d154b3dbe2ae9f20e\AndroidManifest.xml:23:9-25:38
MERGED from [com.android.support:recyclerview-v7:26.1.0] C:\Users\RajivLL\.gradle\caches\transforms-1\files-1.1\recyclerview-v7-26.1.0.aar\ae082dfd2830441d154b3dbe2ae9f20e\AndroidManifest.xml:23:9-25:38
MERGED from [com.android.support:animated-vector-drawable:26.1.0] C:\Users\RajivLL\.gradle\caches\transforms-1\files-1.1\animated-vector-drawable-26.1.0.aar\8879104bb16f9c43d27653ed8f34d295\AndroidManifest.xml:23:9-25:38
MERGED from [com.android.support:animated-vector-drawable:26.1.0] C:\Users\RajivLL\.gradle\caches\transforms-1\files-1.1\animated-vector-drawable-26.1.0.aar\8879104bb16f9c43d27653ed8f34d295\AndroidManifest.xml:23:9-25:38
MERGED from [com.android.support:support-vector-drawable:26.1.0] C:\Users\RajivLL\.gradle\caches\transforms-1\files-1.1\support-vector-drawable-26.1.0.aar\455346f0da2e339455223bcc753fcc55\AndroidManifest.xml:23:9-25:38
MERGED from [com.android.support:support-vector-drawable:26.1.0] C:\Users\RajivLL\.gradle\caches\transforms-1\files-1.1\support-vector-drawable-26.1.0.aar\455346f0da2e339455223bcc753fcc55\AndroidManifest.xml:23:9-25:38
MERGED from [com.android.support:support-media-compat:26.1.0] C:\Users\RajivLL\.gradle\caches\transforms-1\files-1.1\support-media-compat-26.1.0.aar\85d665ed2925be0eac87226dde53abb4\AndroidManifest.xml:26:9-28:38
MERGED from [com.android.support:support-media-compat:26.1.0] C:\Users\RajivLL\.gradle\caches\transforms-1\files-1.1\support-media-compat-26.1.0.aar\85d665ed2925be0eac87226dde53abb4\AndroidManifest.xml:26:9-28:38
MERGED from [com.android.support:support-fragment:26.1.0] C:\Users\RajivLL\.gradle\caches\transforms-1\files-1.1\support-fragment-26.1.0.aar\cf188380846b5328694db99540fe2f4b\AndroidManifest.xml:26:9-28:38
MERGED from [com.android.support:support-fragment:26.1.0] C:\Users\RajivLL\.gradle\caches\transforms-1\files-1.1\support-fragment-26.1.0.aar\cf188380846b5328694db99540fe2f4b\AndroidManifest.xml:26:9-28:38
MERGED from [com.android.support:support-core-utils:26.1.0] C:\Users\RajivLL\.gradle\caches\transforms-1\files-1.1\support-core-utils-26.1.0.aar\365e6e8f7a8b103ff4ef73964b195c76\AndroidManifest.xml:26:9-28:38
MERGED from [com.android.support:support-core-utils:26.1.0] C:\Users\RajivLL\.gradle\caches\transforms-1\files-1.1\support-core-utils-26.1.0.aar\365e6e8f7a8b103ff4ef73964b195c76\AndroidManifest.xml:26:9-28:38
MERGED from [com.android.support:support-core-ui:26.1.0] C:\Users\RajivLL\.gradle\caches\transforms-1\files-1.1\support-core-ui-26.1.0.aar\6d72f79c4f58355a50b54e9bdbc88840\AndroidManifest.xml:26:9-28:38
MERGED from [com.android.support:support-core-ui:26.1.0] C:\Users\RajivLL\.gradle\caches\transforms-1\files-1.1\support-core-ui-26.1.0.aar\6d72f79c4f58355a50b54e9bdbc88840\AndroidManifest.xml:26:9-28:38
MERGED from [com.android.support:support-compat:26.1.0] C:\Users\RajivLL\.gradle\caches\transforms-1\files-1.1\support-compat-26.1.0.aar\a62190037b62d36e5b024436d06cf83b\AndroidManifest.xml:26:9-28:38
MERGED from [com.android.support:support-compat:26.1.0] C:\Users\RajivLL\.gradle\caches\transforms-1\files-1.1\support-compat-26.1.0.aar\a62190037b62d36e5b024436d06cf83b\AndroidManifest.xml:26:9-28:38
	android:value
		ADDED from [com.android.support:design:26.1.0] C:\Users\RajivLL\.gradle\caches\transforms-1\files-1.1\design-26.1.0.aar\6d59cbffaa67243ea0e37209db919aa6\AndroidManifest.xml:28:13-35
	android:name
		ADDED from [com.android.support:design:26.1.0] C:\Users\RajivLL\.gradle\caches\transforms-1\files-1.1\design-26.1.0.aar\6d59cbffaa67243ea0e37209db919aa6\AndroidManifest.xml:27:13-51
provider#android.arch.lifecycle.ProcessLifecycleOwnerInitializer
ADDED from [android.arch.lifecycle:extensions:1.1.1] C:\Users\RajivLL\.gradle\caches\transforms-1\files-1.1\extensions-1.1.1.aar\b901e72800f05df9cd71d1d0c640b875\AndroidManifest.xml:23:9-27:43
	android:authorities
		ADDED from [android.arch.lifecycle:extensions:1.1.1] C:\Users\RajivLL\.gradle\caches\transforms-1\files-1.1\extensions-1.1.1.aar\b901e72800f05df9cd71d1d0c640b875\AndroidManifest.xml:25:13-68
	android:multiprocess
		ADDED from [android.arch.lifecycle:extensions:1.1.1] C:\Users\RajivLL\.gradle\caches\transforms-1\files-1.1\extensions-1.1.1.aar\b901e72800f05df9cd71d1d0c640b875\AndroidManifest.xml:27:13-40
	android:exported
		ADDED from [android.arch.lifecycle:extensions:1.1.1] C:\Users\RajivLL\.gradle\caches\transforms-1\files-1.1\extensions-1.1.1.aar\b901e72800f05df9cd71d1d0c640b875\AndroidManifest.xml:26:13-37
	android:name
		ADDED from [android.arch.lifecycle:extensions:1.1.1] C:\Users\RajivLL\.gradle\caches\transforms-1\files-1.1\extensions-1.1.1.aar\b901e72800f05df9cd71d1d0c640b875\AndroidManifest.xml:24:13-83
